CUST_ID,DATE,ORDER_QTY,PRICE_USD
0,2016-12-01,2008,3
1,2016-12-01,857,3
2,2016-12-01,3602,3
3,2016-12-01,1837,3
4,2016-12-01,1310,3
5,2016-12-01,2551,3
6,2016-12-01,1049,3
7,2016-12-01,1469,3
8,2016-12-01,526,3
9,2016-12-01,1711,3
10,2016-12-01,990,3
11,2016-12-01,28,3
12,2016-12-01,1165,3
13,2016-12-01,670,3
14,2016-12-01,2209,3
15,2016-12-01,2205,3
16,2016-12-01,919,3
17,2016-12-01,2864,3
18,2016-12-01,6361,3
19,2016-12-01,2359,3
20,2016-12-01,1327,3
21,2016-12-01,3644,3
22,2016-12-01,5262,3
23,2016-12-01,958,3
24,2016-12-01,578,3
25,2016-12-01,1235,3
26,2016-12-01,1216,3
27,2016-12-01,2893,3
28,2016-12-01,676,3
29,2016-12-01,1125,3
30,2016-12-01,2306,3
31,2016-12-01,1699,3
32,2016-12-01,354,3
33,2016-12-01,2554,3
34,2016-12-01,1939,3
35,2016-12-01,503,3
36,2016-12-01,3635,3
37,2016-12-01,1359,3
38,2016-12-01,3505,3
39,2016-12-01,1340,3
40,2016-12-01,888,3
41,2016-12-01,2510,3
42,2016-12-01,2708,3
43,2016-12-01,80,3
44,2016-12-01,3125,3
45,2016-12-01,68,3
46,2016-12-01,1433,3
47,2016-12-01,2495,3
48,2016-12-01,778,3
49,2016-12-01,170,3
50,2016-12-01,1053,3
51,2016-12-01,592,3
52,2016-12-01,1837,3
53,2016-12-01,164,3
54,2016-12-01,2243,3
55,2016-12-01,3853,3
56,2016-12-01,1316,3
57,2016-12-01,1375,3
58,2016-12-01,1164,3
59,2016-12-01,2637,3
60,2016-12-01,3186,3
61,2016-12-01,127,3
62,2016-12-01,1190,3
63,2016-12-01,1011,3
64,2016-12-01,489,3
65,2016-12-01,852,3
66,2016-12-01,2797,3
67,2016-12-01,142,3
68,2016-12-01,769,3
69,2016-12-01,3329,3
70,2016-12-01,201,3
71,2016-12-01,500,3
72,2016-12-01,27,3
73,2016-12-01,849,3
74,2016-12-01,630,3
75,2016-12-01,644,3
76,2016-12-01,550,3
77,2016-12-01,887,3
78,2016-12-01,1198,3
79,2016-12-01,89,3
80,2016-12-01,1752,3
81,2016-12-01,1487,3
82,2016-12-01,853,3
83,2016-12-01,448,3
84,2016-12-01,751,3
85,2016-12-01,1843,3
86,2016-12-01,103,3
87,2016-12-01,1487,3
88,2016-12-01,1623,3
89,2016-12-01,464,3
90,2016-12-01,597,3
91,2016-12-01,2052,3
92,2016-12-01,2980,3
93,2016-12-01,1012,3
94,2016-12-01,519,3
95,2016-12-01,433,3
96,2016-12-01,2299,3
97,2016-12-01,2032,3
98,2016-12-01,364,3
99,2016-12-01,734,3
